^C:\USERS\RUSNAB99\SOURCE\REPOS\INTRO 112A\INTRO 112A\X64\RELEASE\SOURCE.OBJ
C:\USERS\RUSNAB99\SOURCE\REPOS\INTRO 112A\X64\RELEASE\INTRO 112A.EXE
C:\USERS\RUSNAB99\SOURCE\REPOS\INTRO 112A\X64\RELEASE\INTRO 112A.PDB
