^C:\USERS\RUSNAB99\SOURCE\REPOS\INTRO 112A\INTRO 112A\X64\RELEASE\SOURCE.OBJ
D:\WINDOWS KITS\10\LIB\10.0.17134.0\UM\X64\KERNEL32.LIB
D:\WINDOWS KITS\10\LIB\10.0.17134.0\UM\X64\USER32.LIB
D:\WINDOWS KITS\10\LIB\10.0.17134.0\UM\X64\GDI32.LIB
D:\WINDOWS KITS\10\LIB\10.0.17134.0\UM\X64\WINSPOOL.LIB
D:\WINDOWS KITS\10\LIB\10.0.17134.0\UM\X64\COMDLG32.LIB
D:\WINDOWS KITS\10\LIB\10.0.17134.0\UM\X64\ADVAPI32.LIB
D:\WINDOWS KITS\10\LIB\10.0.17134.0\UM\X64\SHELL32.LIB
D:\WINDOWS KITS\10\LIB\10.0.17134.0\UM\X64\OLE32.LIB
D:\WINDOWS KITS\10\LIB\10.0.17134.0\UM\X64\OLEAUT32.LIB
D:\WINDOWS KITS\10\LIB\10.0.17134.0\UM\X64\UUID.LIB
D:\WINDOWS KITS\10\LIB\10.0.17134.0\UM\X64\ODBC32.LIB
D:\WINDOWS KITS\10\LIB\10.0.17134.0\UM\X64\ODBCCP32.LIB
C:\USERS\RUSNAB99\SOURCE\REPOS\INTRO 112A\INTRO 112A\X64\RELEASE\SOURCE.OBJ
C:\WINDOWS\GLOBALIZATION\SORTING\SORTDEFAULT.NLS
D:\IDES\VISUALSTUDIO\VC\TOOLS\MSVC\14.14.26428\BIN\HOSTX86\X64\C2.DLL
D:\IDES\VISUALSTUDIO\VC\TOOLS\MSVC\14.14.26428\LIB\X64\MSVCPRT.LIB
D:\IDES\VISUALSTUDIO\VC\TOOLS\MSVC\14.14.26428\LIB\X64\MSVCRT.LIB
D:\IDES\VISUALSTUDIO\VC\TOOLS\MSVC\14.14.26428\LIB\X64\OLDNAMES.LIB
D:\IDES\VISUALSTUDIO\VC\TOOLS\MSVC\14.14.26428\LIB\X64\VCRUNTIME.LIB
D:\WINDOWS KITS\10\LIB\10.0.17134.0\UCRT\X64\UCRT.LIB
D:\IDES\VISUALSTUDIO\VC\TOOLS\MSVC\14.14.26428\BIN\HOSTX86\X64\1049\LINKUI.DLL
D:\WINDOWS KITS\10\BIN\10.0.17134.0\X86\RC.EXE
D:\IDES\VISUALSTUDIO\VC\TOOLS\MSVC\14.14.26428\BIN\HOSTX86\X86\CVTRES.EXE
C:\WINDOWS\SYSTEM32\TZRES.DLL
D:\IDES\VISUALSTUDIO\VC\TOOLS\MSVC\14.14.26428\BIN\HOSTX86\X64\VCTIP.EXE
